         run       event       nTopo   nIdTracks       nJets      nMuons       nElec   nTrueElec   nFakeElec       nPhot   nTruePhot   nFakePhot
      327265   186524665           0         416           0           0           0           0           0           0           0           0
      327265   186525031           0         429           0           0           0           0           0           0           0           0
      327265   186542447           0         293           0           0           0           0           0           0           0           0
      327265   186543405           0         320           0           0           0           0           0           0           0           0
      327265   186548387           0         513           0           0           0           0           0           0           0           0
